[
  {
    "type": "tab",
    "id": "eb400441.8480f8",
    "label": "Flow 1"
  },
  {
    "id": "e00cd378.2d0a2",
    "type": "inject",
    "z": "eb400441.8480f8",
    "name": "",
    "topic": "",
    "payload": "On behalf of the great state of Illinois, crossroads of a nation, Land of Lincoln, let me express my deepest gratitude for the privilege of addressing this convention.  Tonight is a particular honor for me",
    "payloadType": "str",
    "repeat": "",
    "crontab": "",
    "once": false,
    "x": 153,
    "y": 212,
    "wires": [
      [
        "5483f030.b87c4"
      ]
    ]
  },
  {
    "id": "5483f030.b87c4",
    "type": "function",
    "z": "eb400441.8480f8",
    "name": "",
    "func": "return msg;",
    "outputs": 1,
    "noerr": 0,
    "x": 321,
    "y": 211,
    "wires": [
      [
        "4ca9bd2c.363fc4",
        "2132e752.f6e0e8"
      ]
    ]
  },
  {
    "id": "4ca9bd2c.363fc4",
    "type": "debug",
    "z": "eb400441.8480f8",
    "name": "",
    "active": false,
    "console": "false",
    "complete": "false",
    "x": 542,
    "y": 211,
    "wires": []
  },
  {
    "id": "2132e752.f6e0e8",
    "type": "sentiment",
    "z": "eb400441.8480f8",
    "name": "",
    "x": 518,
    "y": 290,
    "wires": [
      [
        "ce114294.66ad6",
        "bcd62db7.902a8"
      ]
    ]
  },
  {
    "id": "bbbd430f.c4274",
    "type": "debug",
    "z": "eb400441.8480f8",
    "name": "",
    "active": true,
    "console": "false",
    "complete": "true",
    "x": 627,
    "y": 463,
    "wires": []
  },
  {
    "id": "ce114294.66ad6",
    "type": "http response",
    "z": "eb400441.8480f8",
    "name": "",
    "x": 629,
    "y": 368,
    "wires": []
  },
  {
    "id": "bcd62db7.902a8",
    "type": "mqtt out",
    "z": "eb400441.8480f8",
    "name": "",
    "topic": "test",
    "qos": "0",
    "retain": "true",
    "broker": "",
    "x": 686,
    "y": 284,
    "wires": []
  }
]